[
  {
    "name": "616牛肉火鍋專門店",
    "address": "荃灣三陂坊14-18號安安樓地下B舖",
    "style": "火鍋/港式/酒精飲品",
    "territory": "新界",
    "district": "荃灣"
  },
  {
    "name": "Antoshimo Cafe & Bakery",
    "address": "荃灣青山公路荃灣段398號愉景新城1樓1066號舖",
    "style": "日本菜/麵包或蛋糕",
    "territory": "新界",
    "district": "荃灣"
  },
  {
    "name": "Aroma Dessert Cafe",
    "address": "荃灣鱟地坊38-46號祐強樓地下42號舖",
    "style": "甜品/Cafe",
    "territory": "新界",
    "district": "荃灣"
  },
  {
    "name": "Beans荳子",
    "address": "荃灣海壩街99號地下",
    "style": "西式/甜品/意粉/All Day Breakfast/Cafe",
    "territory": "新界",
    "district": "荃灣"
  },
  {
    "name": "Between Haru 一日之間",
    "address": "荃灣白田壩街45號南豐紗廠1樓103號舖",
    "style": "Cafe/糕餅烘焙/麵包或蛋糕",
    "territory": "新界",
    "district": "荃灣"
  },
  {
    "name": "Book B Kitchen Mealmeal",
    "address": "荃灣白田壩街45號南豐紗廠六廠1樓111號舖",
    "style": "日本菜/Cafe/麵包或蛋糕/茶類飲品/甜品/果汁/書店",
    "territory": "新界",
    "district": "荃灣"
  },
  {
    "name": "Burger Land",
    "address": "荃灣海壩街77號地舖",
    "style": "美國菜/漢堡包",
    "territory": "新界",
    "district": "荃灣"
  },
  {
    "name": "Chicken pocha",
    "address": "荃灣荃貴街18號富麗花園商場A座13及16號地舖",
    "style": "韓國菜",
    "territory": "新界",
    "district": "荃灣"
  },
  {
    "name": "Chroma",
    "address": "荃灣沙咀道26-38號匯力工業中心1517室",
    "style": "糕餅烘焙/甜品/麵包或蛋糕",
    "territory": "新界",
    "district": "荃灣"
  },
  {
    "name": "Cup Of...",
    "address": "荃灣昌泰街5號富榮大廈地下1號舖",
    "style": "台式飲品",
    "territory": "新界",
    "district": "荃灣"
  },
  {
    "name": "Dear Sweets",
    "address": "荃灣灰窰角街2 DAN6, 16樓J室",
    "style": "烘焙課程/麵包或蛋糕",
    "territory": "新界",
    "district": "荃灣"
  },
  {
    "name": "Diff. Cafe",
    "address": "荃灣享和街16號嘉華樓地下D舖",
    "style": "西式/Cafe",
    "territory": "新界",
    "district": "荃灣"
  },
  {
    "name": "Hidden Meat",
    "address": "荃灣柴灣角街83-93號榮興工業大廈16樓15B室",
    "style": "凍肉海鮮",
    "territory": "新界",
    "district": "荃灣"
  },
  {
    "name": "hōmu by favilla",
    "address": "荃灣青山公路荃灣段398號愉景新城2樓2013號舖",
    "style": "西式/Cafe/甜品/意粉/日本菜",
    "territory": "新界",
    "district": "荃灣"
  },
  {
    "name": "ideas Dessert",
    "address": "荃灣荃貴街10A號富麗花園商場A座地下13B及15號舖",
    "style": "甜品",
    "territory": "新界",
    "district": "荃灣"
  },
  {
    "name": "KoKo Coffee Roasters",
    "address": "白田壩街45號南豐紗廠六廠 G09",
    "style": "Cafe/精品咖啡",
    "territory": "新界",
    "district": "荃灣"
  },
  {
    "name": "Le Boule Chef",
    "address": "荃灣橫窩仔街16-26號順力工業大廈4/F 403室",
    "style": "烹飪課程/糕餅烘焙/凍肉海鮮",
    "territory": "新界",
    "district": "荃灣"
  },
  {
    "name": "Marka House",
    "address": "荃灣大河道98號如心廣場商場二期1樓119號舖",
    "style": "西式/All day Breakfast/漢堡包/意粉",
    "territory": "新界",
    "district": "荃灣"
  },
  {
    "name": "No Boundary",
    "address": "荃灣大壩街9號地下",
    "style": "西式/Cafe/漢堡包/All day Breakfast/果汁",
    "territory": "新界",
    "district": "荃灣"
  },
  {
    "name": "RETOLD coffee.tea.spirits",
    "address": "荃灣白田壩街45號南豐紗廠1樓102號舖",
    "style": "西式/精品咖啡/酒吧/Cafe/麵包或蛋糕/咖啡零售/茶類飲品",
    "territory": "新界",
    "district": "荃灣"
  },
  {
    "name": "Return Coffee 362",
    "address": "荃灣沙咀道362號全發商業大廈地舖",
    "style": "西式/精品咖啡/咖啡零售/Cafe",
    "territory": "新界",
    "district": "荃灣"
  },
  {
    "name": "Seafood Great",
    "address": "荃灣楊屋道街市地下22號",
    "style": "凍肉海鮮",
    "territory": "新界",
    "district": "荃灣"
  },
  {
    "name": "Sogno Gelato",
    "address": "荃灣楊屋道1號荃新天地2期UG樓85號舖",
    "style": "雪糕/小食店",
    "territory": "新界",
    "district": "荃灣"
  },
  {
    "name": "TAP The Ale Project",
    "address": "荃灣白田壩街45號南豐紗廠3樓302號舖",
    "style": "西式/三文治/酒吧/酒精飲品",
    "territory": "新界",
    "district": "荃灣"
  },
  {
    "name": "1523釗級廚房",
    "address": "元朗馬田路38號怡豐花園B座地下18號舖",
    "style": "西式/扒房",
    "territory": "新界",
    "district": "元朗"
  },
  {
    "name": "1987 Kitchen",
    "address": "元朗金輝徑28號好盛洋樓地下11號舖",
    "style": "西式/扒房/酒精飲品",
    "territory": "新界",
    "district": "元朗"
  },
  {
    "name": "616牛肉火鍋專門店",
    "address": "元朗西菁街9號富盛大廈地下95-100號舖",
    "style": "火鍋/港式/酒精飲品",
    "territory": "新界",
    "district": "元朗"
  },
  {
    "name": "Accro Coffee",
    "address": "元朗安寧路162-164號金城樓地下D號舖",
    "style": "麵包或蛋糕/精品咖啡/咖啡零售",
    "territory": "新界",
    "district": "元朗"
  },
  {
    "name": "Aello手調茶品",
    "address": "元朗民合徑8號幸福樓地下18號舖",
    "style": "台式飲品/果汁",
    "territory": "新界",
    "district": "元朗"
  },
  {
    "name": "AquaBlue 伽藍生蠔",
    "address": "元朗橫洲宏業東街22號安勁工業大廈5樓A室",
    "style": "凍肉海鮮/糧油/酒類零售",
    "territory": "新界",
    "district": "元朗"
  },
  {
    "name": "Beanlab 好豆製研究所",
    "address": "元朗鳳翔路45號金馬大廈12號舖",
    "style": "台式飲品",
    "territory": "新界",
    "district": "元朗"
  },
  {
    "name": "Bello Dining",
    "address": "天水圍天秀路8號天一商城2樓2008號舖",
    "style": "西式/薄餅/漢堡包/意大利菜",
    "territory": "新界",
    "district": "元朗"
  },
  {
    "name": "Bove",
    "address": "元朗元龍街9號形點1期2樓Foodeli2042號舖",
    "style": "小食店/甜品",
    "territory": "新界",
    "district": "元朗"
  },
  {
    "name": "Bove",
    "address": "天水圍天靖街3號天盛苑天盛商場地下M417號舖",
    "style": "小食店/甜品",
    "territory": "新界",
    "district": "元朗"
  },
  {
    "name": "CoHee Studio",
    "address": "錦田錦田市街152號地下",
    "style": "西式/Cafe/All Day Breakfast/精品咖啡",
    "territory": "新界",
    "district": "元朗"
  },
  {
    "name": "E.Tea 茶星人",
    "address": "天水圍天靖街3號天盛商場地下天盛街市M419號舖",
    "style": "台式飲品/茶類飲品",
    "territory": "新界",
    "district": "元朗"
  },
  {
    "name": "Greatkies",
    "address": "天水圍天靖街3號天盛商場地下天盛街市Pop-up store",
    "style": "甜品",
    "territory": "新界",
    "district": "元朗"
  },
  {
    "name": "JaseLab Cookery",
    "address": "元朗安樂路1-11號明珠樓地下11號舖",
    "style": "西式/私房菜",
    "territory": "新界",
    "district": "元朗"
  },
  {
    "name": "OneThird Coffee",
    "address": "元朗鳳攸南街9號好順利大廈2座地下",
    "style": "西式/Cafe/All Day Breakfast/精品咖啡/咖啡零售",
    "territory": "新界",
    "district": "元朗"
  },
  {
    "name": "Sora Cafe",
    "address": "元朗鳳攸北街5-7號順豐大廈地下37號",
    "style": "西式/精品咖啡/Cafe/麵包或蛋糕",
    "territory": "新界",
    "district": "元朗"
  },
  {
    "name": "Story Steak & Pasta",
    "address": "元朗鳳攸南街9號好順利大廈地下3號舖",
    "style": "意大利菜/扒房/意粉",
    "territory": "新界",
    "district": "元朗"
  },
  {
    "name": "The Basic",
    "address": "元朗金輝徑28號好盛洋樓地下14A舖",
    "style": "西式/漢堡包/小食店",
    "territory": "新界",
    "district": "元朗"
  },
  {
    "name": "The Beast Feast",
    "address": "天水圍天湖路1號",
    "style": "凍肉海鮮",
    "territory": "新界",
    "district": "元朗"
  },
  {
    "name": "Woodsage",
    "address": "元朗福田徑2-16號樂富大廈地下7號舖",
    "style": "西式/Cafe/甜品/泰國菜/薄餅",
    "territory": "新界",
    "district": "元朗"
  },
  {
    "name": "一素店 One Vegan Shop",
    "address": "元朗鳳翔路2-6號交通廣場地下1號舖",
    "style": "素食零售/健康食品/糧油/護膚品/寵物食品/生活百貨",
    "territory": "新界",
    "district": "元朗"
  },
  {
    "name": "三多",
    "address": "元朗元龍街9號形點I期2樓2042號舖Foodeli",
    "style": "小食店",
    "territory": "新界",
    "district": "元朗"
  },
  {
    "name": "三多",
    "address": "元朗又新街40-48號榮豐大廈地下E號舖",
    "style": "小食店",
    "territory": "新界",
    "district": "元朗"
  },
  {
    "name": "不見不散 I am Here Cafe",
    "address": "元朗洪水橋雅珊園商場地下7號舖",
    "style": "Cafe",
    "territory": "新界",
    "district": "元朗"
  },
  {
    "name": "9 3/4 cafe",
    "address": "旺角煙廠街9號興發商業大廈404室",
    "style": "西式/Cafe",
    "territory": "九龍",
    "district": "旺角"
  },
  {
    "name": "90s Lazy",
    "address": "旺角亞皆老街83號4樓01室先施大廈",
    "style": "西式/Cafe/All day breakfast",
    "territory": "九龍",
    "district": "旺角"
  },
  {
    "name": "Amour Corner",
    "address": "旺角砵蘭街106號地下",
    "style": "西式/扒房/酒精飲品",
    "territory": "九龍",
    "district": "旺角"
  },
  {
    "name": "ATUM CHAMPAK 青花",
    "address": "旺角奶路臣街17號The FOREST 107-108號舖",
    "style": "泰國菜",
    "territory": "九龍",
    "district": "旺角"
  },
  {
    "name": "Coffeezine",
    "address": "旺角廣華街1號仁安大廈地下5A",
    "style": "Cafe/精品咖啡/甜品",
    "territory": "九龍",
    "district": "旺角"
  },
  {
    "name": "Donut's Baba",
    "address": "旺角西洋菜南街2A號銀城廣場地庫B78號舖",
    "style": "甜品/雪糕/麵包或蛋糕",
    "territory": "九龍",
    "district": "旺角"
  },
  {
    "name": "Dreamy Home",
    "address": "旺角登打士街44號恆隆大廈7樓",
    "style": "貓Cafe",
    "territory": "九龍",
    "district": "旺角"
  },
  {
    "name": "Five to one cafe",
    "address": "旺角勝利道6號地下",
    "style": "Cafe/甜品/三文治/烏冬",
    "territory": "九龍",
    "district": "旺角"
  },
  {
    "name": "Foodo ",
    "address": "旺角通菜街1A-1L號威達商業大廈地下C號舖",
    "style": "西式/Cafe/茶類飲品/甜品/意粉",
    "territory": "九龍",
    "district": "旺角"
  },
  {
    "name": "Halfway Coffee 半路咖啡",
    "address": "旺角豉油街6號地舖",
    "style": "Cafe/咖啡零售/精品咖啡",
    "territory": "九龍",
    "district": "旺角"
  },
  {
    "name": "Ice Puff",
    "address": "旺角彌敦道688號旺角中心一期1樓F51舖",
    "style": "甜品/雪糕/小食店",
    "territory": "九龍",
    "district": "旺角"
  },
  {
    "name": "Joyful Dessert House",
    "address": "旺角黑布街74號地下2-3號舖",
    "style": "甜品",
    "territory": "九龍",
    "district": "旺角"
  },
  {
    "name": "Knockbox Coffee Company",
    "address": "旺角黑布街21號地下",
    "style": "西式/Cafe/All day Breakfast/咖啡零售/精品咖啡",
    "territory": "九龍",
    "district": "旺角"
  },
  {
    "name": "Lab Eat Restaurant & Bar",
    "address": "旺角彌敦道700號T.O.P. This is Our Place 5樓502號舖",
    "style": "西式/海鮮/意粉/扒房/酒精飲品",
    "territory": "九龍",
    "district": "旺角"
  },
  {
    "name": "Little Fresh and Bar",
    "address": "旺角登打士街登打士廣場13樓1301至1302室",
    "style": "西式/Cafe/酒精飲品",
    "territory": "九龍",
    "district": "旺角"
  },
  {
    "name": "live cafe rhythm",
    "address": "旺角登打士街43D號達利商業大廈3樓B室",
    "style": "薄餅/酒吧/意粉",
    "territory": "九龍",
    "district": "旺角"
  },
  {
    "name": "Live Cafe Rhythm",
    "address": "旺角登打士街43D號達利商業大廈3樓B室",
    "style": "西式/Cafe/薄餅",
    "territory": "九龍",
    "district": "旺角"
  },
  {
    "name": "Lockeroom Dining",
    "address": "旺角砵蘭街215號朗晴坊8樓全層",
    "style": "西式/甜品",
    "territory": "九龍",
    "district": "旺角"
  },
  {
    "name": "Maid Planet",
    "address": "旺角豉油街24-26號福泰大廈11樓",
    "style": "Cafe/日本菜/女僕Cafe",
    "territory": "九龍",
    "district": "旺角"
  },
  {
    "name": "Maidoll Mirage",
    "address": "旺角西洋菜南街好望角大廈21樓2105室",
    "style": "女僕cafe",
    "territory": "九龍",
    "district": "旺角"
  },
  {
    "name": "Morokok",
    "address": "旺角登打士街56號家樂坊8樓801號舖",
    "style": "酒吧/泰國菜/西式",
    "territory": "九龍",
    "district": "旺角"
  },
  {
    "name": "Nardo's Cafe",
    "address": "旺角彌敦道594-596號旺角新城8樓",
    "style": "西式/意粉/Cafe/甜品",
    "territory": "九龍",
    "district": "旺角"
  },
  {
    "name": "Outdark",
    "address": "旺角彌敦道613號飛達商業中心2樓",
    "style": "韓國菜/酒精飲品",
    "territory": "九龍",
    "district": "旺角"
  },
  {
    "name": "Papillon 帕比安紅茶書室",
    "address": "旺角上海街635-637號國祥大廈1樓B室",
    "style": "西式/貓Cafe/茶葉/茶類飲品",
    "territory": "九龍",
    "district": "旺角"
  },
  {
    "name": "616牛肉火鍋專門店",
    "address": "尖沙咀赫德道4號利是大廈1樓",
    "style": "火鍋/港式/酒精飲品",
    "territory": "九龍",
    "district": "尖沙咀"
  },
  {
    "name": "8鍋臭臭鍋 8Pots HK",
    "address": "尖沙咀金巴利道77號地舖",
    "style": "台灣菜/火鍋/台式飲品",
    "territory": "九龍",
    "district": "尖沙咀"
  },
  {
    "name": "Amitie Kitchen",
    "address": "尖沙咀厚福街H8 9樓",
    "style": "法國菜/海鮮/西式/麵包或蛋糕/意大利菜/酒精飲品",
    "territory": "九龍",
    "district": "尖沙咀"
  },
  {
    "name": "ATUM Restaurant",
    "address": "尖沙咀河內道18號K11購物藝術館1樓101B號舖",
    "style": "西式/甜品",
    "territory": "九龍",
    "district": "尖沙咀"
  },
  {
    "name": "Black Sugar Coffee & Lifestyle",
    "address": "尖沙咀麼地道68號帝國中心地下G34號舖",
    "style": "西式/麵包或蛋糕/Cafe/精品咖啡/器皿/茶類飲品/咖啡零售",
    "territory": "九龍",
    "district": "尖沙咀"
  },
  {
    "name": "Cat Garden",
    "address": "尖沙咀金巴利街7-15號安聯大廈4樓C室",
    "style": "Cafe/貓Cafe",
    "territory": "九龍",
    "district": "尖沙咀"
  },
  {
    "name": "Caviar Bar & Restaurant",
    "address": "尖沙咀天文臺圍2-4號LG樓",
    "style": "酒吧/西式/意粉/酒精飲品",
    "territory": "九龍",
    "district": "尖沙咀"
  },
  {
    "name": "Cosmos Restaurant & Bar",
    "address": "尖沙咀寶勒巷27號東滙商業大厦地舖",
    "style": "西式/海鮮/扒房/酒吧/酒精飲品",
    "territory": "九龍",
    "district": "尖沙咀"
  },
  {
    "name": "Courage Eighteen Specialty Coffee by PLAT",
    "address": "尖沙咀麼地道63號好時中心地下55號舖",
    "style": "西式/Cafe/All day Breakfast/精品咖啡",
    "territory": "九龍",
    "district": "尖沙咀"
  },
  {
    "name": "Galaxy SS Cafe ",
    "address": "尖沙咀赫德道4號5樓",
    "style": "酒吧/酒精飲品/煙草產品/音樂場地",
    "territory": "九龍",
    "district": "尖沙咀"
  },
  {
    "name": "Ganbei Yakitori 乾杯串燒居酒屋香港",
    "address": "尖沙咀漆咸道南123號地下",
    "style": "日本菜/居酒屋/串燒/酒精飲品/日韓燒肉",
    "territory": "九龍",
    "district": "尖沙咀"
  },
  {
    "name": "HERE is a PUB",
    "address": "尖沙咀赫德道12-14號赫德大廈地下",
    "style": "西式/酒吧/酒精飲品",
    "territory": "九龍",
    "district": "尖沙咀"
  },
  {
    "name": "Hokahoka",
    "address": "尖沙咀麼地道63號好時中心51-52號舖",
    "style": "日本菜/居酒屋/壽司刺身",
    "territory": "九龍",
    "district": "尖沙咀"
  },
  {
    "name": "HOOMAN By The Sea",
    "address": "尖沙咀西九文化區藝術公園地下GF-07號舖",
    "style": "西式/美國菜/漢堡包/熱狗/Cafe",
    "territory": "九龍",
    "district": "尖沙咀"
  },
  {
    "name": "Hygge bar",
    "address": "尖沙咀漆咸道南29號溫莎大廈地下2-3號舖",
    "style": "西式/酒吧/酒精飲品",
    "territory": "九龍",
    "district": "尖沙咀"
  },
  {
    "name": "JK Brother’s 日韓刺身及海鮮涮涮鍋放題",
    "address": "尖沙咀彌敦道180號寶華商業大廈3樓",
    "style": "放題或自助餐/火鍋",
    "territory": "九龍",
    "district": "尖沙咀"
  },
  {
    "name": "Just'er Bar & Restaurant",
    "address": "尖沙咀山林道13號地下A1-A2號舖",
    "style": "西式/日本菜/海鮮/扒房/酒精飲品",
    "territory": "九龍",
    "district": "尖沙咀"
  },
  {
    "name": "Lab Eat Restaurant & Bar",
    "address": "尖沙咀金巴利道87-89號僑豐大厦地下1-2號舖",
    "style": "西式/海鮮/意粉/扒房/酒精飲品",
    "territory": "九龍",
    "district": "尖沙咀"
  },
  {
    "name": "Layback Cafe & Bar",
    "address": "尖沙咀加連威老道41號C-D嘉威大厦4樓B室",
    "style": "西式/Cafe/漢堡包/酒吧/酒精飲品",
    "territory": "九龍",
    "district": "尖沙咀"
  },
  {
    "name": "Meowcastlehk 貓喵堡",
    "address": "尖沙咀寶勒巷27號東匯商業大廈7樓",
    "style": "貓Cafe/意粉/日本菜/寵物食品",
    "territory": "九龍",
    "district": "尖沙咀"
  },
  {
    "name": "N1 Coffee & Co.",
    "address": "尖沙咀麼地道34號地下G舖",
    "style": "精品咖啡/咖啡零售",
    "territory": "九龍",
    "district": "尖沙咀"
  },
  {
    "name": "Number 9 Coffee",
    "address": "尖沙咀加連威老道96號希爾頓大廈地下9號舖",
    "style": "Cafe/精品咖啡/三文治/麵包或蛋糕/All Day Breakfast",
    "territory": "九龍",
    "district": "尖沙咀"
  },
  {
    "name": "Outdark",
    "address": "尖沙咀厚福街8號H8 17樓",
    "style": "韓國菜/酒精飲品",
    "territory": "九龍",
    "district": "尖沙咀"
  },
  {
    "name": "Oyster To Go",
    "address": "尖沙咀山林道6號地下",
    "style": "西式/海鮮/酒吧",
    "territory": "九龍",
    "district": "尖沙咀"
  },
  {
    "name": "Avengers Kitchen & Bar 復仇者餐館",
    "address": "中環嘉咸街45A一樓",
    "style": "西式/Cafe/茶類飲品/小食店/酒精飲品/意粉",
    "territory": "香港",
    "district": "中環"
  },
  {
    "name": "Banh Mi Kitchen",
    "address": "中環利源東街22號地下5號舖",
    "style": "Cafe/越南菜/三文治",
    "territory": "香港",
    "district": "中環"
  },
  {
    "name": "CHI Tachinomi ",
    "address": "中環7號碼頭地下A號舖",
    "style": "日本菜",
    "territory": "香港",
    "district": "中環"
  },
  {
    "name": "Club 71",
    "address": "中環荷李活道67號地下",
    "style": "酒吧/英國菜/酒精飲品",
    "territory": "香港",
    "district": "中環"
  },
  {
    "name": "Coco Espresso",
    "address": "中環士丹利街50號信誠廣場地下D舖",
    "style": "Cafe/西式/咖啡零售",
    "territory": "香港",
    "district": "中環"
  },
  {
    "name": "Common Ground",
    "address": "中環城皇街19號地下",
    "style": "西式/Cafe/All Day Breakfast/精品咖啡/咖啡零售",
    "territory": "香港",
    "district": "中環"
  },
  {
    "name": "Cup of Joe",
    "address": "中環德輔道中141號中保集團大廈地下C2A-C2B號舖",
    "style": "麵包或蛋糕/外賣店/精品咖啡",
    "territory": "香港",
    "district": "中環"
  },
  {
    "name": "DOSE",
    "address": "中環卑利街28號地舖",
    "style": "西式/All day Breakfast/意粉/酒吧",
    "territory": "香港",
    "district": "中環"
  },
  {
    "name": "Elixir",
    "address": "中環美輪街9號地舖",
    "style": "精品咖啡",
    "territory": "香港",
    "district": "中環"
  },
  {
    "name": "Got Beef HK",
    "address": "中環7號碼頭(天星碼頭)上層F舖",
    "style": "西式/扒房",
    "territory": "香港",
    "district": "中環"
  },
  {
    "name": "Hakawa Chocolate",
    "address": "中環歌賦街49-51A號地舖1B",
    "style": "糖果/甜品",
    "territory": "香港",
    "district": "中環"
  },
  {
    "name": "HOLLY BROWN Coffee Roasters",
    "address": "中環士丹利街22號地下",
    "style": "西式/Cafe/甜品/精品咖啡/音樂場地",
    "territory": "香港",
    "district": "中環"
  },
  {
    "name": "Igloo Dessert Bar",
    "address": "中環7號碼頭(天星碼頭)下層C舖",
    "style": "雪糕",
    "territory": "香港",
    "district": "中環"
  },
  {
    "name": "Interval Coffee Bar",
    "address": "中環威靈頓街33號地庫",
    "style": "西式/Cafe/酒吧/咖啡零售/精品咖啡/酒精飲品",
    "territory": "香港",
    "district": "中環"
  },
  {
    "name": "KALE",
    "address": "中環利源西街26號地舖",
    "style": "西式/漢堡包/素食",
    "territory": "香港",
    "district": "中環"
  },
  {
    "name": "Kinship",
    "address": "中環些利街2-4號3樓",
    "style": "西式/酒吧/酒精飲品",
    "territory": "香港",
    "district": "中環"
  },
  {
    "name": "Le Moment",
    "address": "中環蘇豪卑利街55號地舖",
    "style": "法國菜/西式/酒吧/酒精飲品/扒房",
    "territory": "香港",
    "district": "中環"
  },
  {
    "name": "Life?",
    "address": "中環蘇豪伊利近街2-4號1樓",
    "style": "Cafe/精品咖啡/共享空間",
    "territory": "香港",
    "district": "中環"
  },
  {
    "name": "Liz Coffee",
    "address": "中環蘭桂坊德己立街23號晉逸蘭桂坊精品酒店2樓",
    "style": "西式/Cafe",
    "territory": "香港",
    "district": "中環"
  },
  {
    "name": "Macky's",
    "address": "中環威靈頓街76號地下",
    "style": "漢堡包/酒吧/意粉",
    "territory": "香港",
    "district": "中環"
  },
  {
    "name": "Oddies Foodies",
    "address": "中環歌賦街45號地舖",
    "style": "雪糕/甜品",
    "territory": "香港",
    "district": "中環"
  },
  {
    "name": "POP Vegan",
    "address": "中環蘇豪伊利近街28號1樓",
    "style": "素食/西式/漢堡包",
    "territory": "香港",
    "district": "中環"
  },
  {
    "name": "S2 Kitchen",
    "address": "中環威靈頓街51號地下A舖",
    "style": "日本菜/壽司刺身/串燒/居酒屋/酒精飲品",
    "territory": "香港",
    "district": "中環"
  },
  {
    "name": "SHADY ACRES",
    "address": "中環蘇豪卑利街46號地下",
    "style": "西式/酒吧/酒精飲品",
    "territory": "香港",
    "district": "中環"
  },
  {
    "name": "15squarestreet KAFFE",
    "address": "上環四方街15號地舖",
    "style": "Cafe/香水精油/鐘錶",
    "territory": "香港",
    "district": "上環"
  },
  {
    "name": "29 Coffee Co",
    "address": "上環文咸東街50號寶恆商業中心地下2號舖",
    "style": "三文治/Cafe/精品咖啡/麵包或蛋糕/咖啡零售",
    "territory": "香港",
    "district": "上環"
  },
  {
    "name": "3rd Space",
    "address": "上環差館上街16號",
    "style": "西式/甜品/果汁/Cafe/All day breakfast/茶類飲品",
    "territory": "香港",
    "district": "上環"
  },
  {
    "name": "Bad Ass Coffee",
    "address": "上環永和街31號地舖",
    "style": "麵包或蛋糕/精品咖啡/咖啡零售/Cafe",
    "territory": "香港",
    "district": "上環"
  },
  {
    "name": "Barista Jam",
    "address": "上環蘇杭街97號東利商業大廈地下及閣樓1號舖",
    "style": "西式/三文治/酒精飲品/麵包或蛋糕/Cafe/精品咖啡/咖啡零售",
    "territory": "香港",
    "district": "上環"
  },
  {
    "name": "Bulldog Hotdog",
    "address": "上環皇后大道中378號福陞閣地下04號A鋪",
    "style": "美國菜/漢堡包/熱狗",
    "territory": "香港",
    "district": "上環"
  },
  {
    "name": "Coco Espresso",
    "address": "上環干諾道中168-200號信德中心西翼4樓402F號舖",
    "style": "Cafe/西式/咖啡零售",
    "territory": "香港",
    "district": "上環"
  },
  {
    "name": "Coco Espresso",
    "address": "上環蘇杭街13-15號地舖",
    "style": "Cafe/西式/咖啡零售",
    "territory": "香港",
    "district": "上環"
  },
  {
    "name": "Coffee & Laundry",
    "address": "上環皇后街1號地下F號舖",
    "style": "精品咖啡/Cafe/洗衣店/咖啡零售",
    "territory": "香港",
    "district": "上環"
  },
  {
    "name": "FabCafe",
    "address": "上環新街10號地舖",
    "style": "西式/麵包或蛋糕/精品咖啡/果汁/茶類飲品",
    "territory": "香港",
    "district": "上環"
  },
  {
    "name": "Halfway Coffee 半路咖啡",
    "address": "上環東街12號地舖",
    "style": "Cafe/咖啡零售/精品咖啡",
    "territory": "香港",
    "district": "上環"
  },
  {
    "name": "Halfway Coffee 半路咖啡",
    "address": "上環摩羅上街26號地舖",
    "style": "Cafe/咖啡零售/精品咖啡",
    "territory": "香港",
    "district": "上環"
  },
  {
    "name": "LLB Bistro",
    "address": "上環荷李活道188號地下",
    "style": "西式/All day Breakfast/Cafe",
    "territory": "香港",
    "district": "上環"
  },
  {
    "name": "Nectar Integrative Dining",
    "address": "上環荷李活道108號地下D號舖",
    "style": "素食",
    "territory": "香港",
    "district": "上環"
  },
  {
    "name": "Ohms cafe & bar順逆珈琲酒館",
    "address": "上環荷李活道192號店舖A",
    "style": "素食/Cafe/精品咖啡/酒類零售/酒精飲品",
    "territory": "香港",
    "district": "上環"
  },
  {
    "name": "On Time Coffee & Kitchen ",
    "address": "上環蘇杭街93號東利商業大廈地下2號舖",
    "style": "西式/意粉/扒房/麵包或蛋糕/精品咖啡/茶類飲品",
    "territory": "香港",
    "district": "上環"
  },
  {
    "name": "Pizzeria Jacomax",
    "address": "上環永樂街28-34號東成商業大廈地下C舖",
    "style": "意大利菜/酒吧/薄餅/酒精飲品",
    "territory": "香港",
    "district": "上環"
  },
  {
    "name": "Teakha 茶家",
    "address": "上環太平山街18B號地舖",
    "style": "西式/麵包或蛋糕/Cafe/茶葉/茶類飲品",
    "territory": "香港",
    "district": "上環"
  },
  {
    "name": "The Corner Coffee",
    "address": "上環皇后大道中378號地下",
    "style": "精品咖啡/麵包或蛋糕/咖啡零售",
    "territory": "香港",
    "district": "上環"
  },
  {
    "name": "Triple King Cafe",
    "address": "上環永樂街1-3號世瑛大廈2樓203室",
    "style": "Cafe/西式",
    "territory": "香港",
    "district": "上環"
  },
  {
    "name": "Viet Dating",
    "address": "上環永樂街87號泰達大廈地下4號舖",
    "style": "越南菜/麵包或蛋糕",
    "territory": "香港",
    "district": "上環"
  },
  {
    "name": "Why 50",
    "address": "上環禧利街27號富輝商業中心地下E舖",
    "style": "Cafe/三文治/All day Breakfast",
    "territory": "香港",
    "district": "上環"
  },
  {
    "name": "WINK",
    "address": "上環文咸東街79號地舖",
    "style": "酒吧/酒精飲品",
    "territory": "香港",
    "district": "上環"
  },
  {
    "name": "心事如塵茶食亭",
    "address": "上環皇后大道中255號曼哈頓大廈地下G01B號舖",
    "style": "麵包或蛋糕/台式飲品/台灣菜",
    "territory": "香港",
    "district": "上環"
  }
]
